{
	"extends": "tslint:recommended",
	"rules": {
		"array-type": [
			true,
			"array"
		],
		"arrow-parens": false,
		"deprecation": {
			"severity": "warn"
		},
		"import-blacklist": [
			true,
			"rxjs/Rx"
		],
		"interface-name": true,
		"max-classes-per-file": false,
		"max-line-length": false,
		"member-access": false,
		"member-ordering": [
			true,
			{
				"order": [
					"static-field",
					"static-method",
					"instance-field",
					"instance-method"
				]
			}
		],
		"no-conditional-assignment": false,
		"no-consecutive-blank-lines": [
			true,
			1
		],
		"no-console": [
			true,
			"debug",
			"info",
			"time",
			"timeEnd",
			"trace"
		],
		"no-empty": true,
		"no-inferrable-types": false,
		"no-non-null-assertion": false,
		"no-redundant-jsdoc": true,
		"no-switch-case-fall-through": true,
		"no-var-requires": true,
		"object-literal-key-quotes": [
			true,
			"as-needed"
		],
		"object-literal-sort-keys": [ true, "match-declaration-order-only" ],
		"object-literal-shorthand": [ true, "never" ],
		"ordered-imports": [
			true,
			{
				"import-sources-order": "any",
				"named-imports-order": "any",
				"grouped-imports": true,
				"groups": [
					{
						"name": "node",
						"match": "^(url|http|https|readline|path|child_process|fs|net|crypto)$",
						"order": 10
					},
					{
						"name": "external-amp",
						"match": "^@",
						"order": 20
					},
					{
						"name": "tscommons",
						"match": "^tscommons-",
						"order": 50
					},
					{
						"name": "nodecommons",
						"match": "^nodecommons-",
						"order": 60
					},
					{
						"name": "othercommons",
						"match": "^([a-z]+)commons-",
						"order": 70
					},
					{
						"name": "shared",
						"match": "^shared$",
						"order": 80
					},
					{
						"name": "joint",
						"match": "^joint$",
						"order": 90
					},
					{
						"name": "grand2-app",
						"match": "^\\.\\.\\./\\.\\./([a-z].+/)?apps/",
						"order": 200
					},
					{
						"name": "grand2-api",
						"match": "^\\.\\.\\./\\.\\./([a-z].+/)?apis/",
						"order": 201
					},
					{
						"name": "grand2-class",
						"match": "^\\.\\.\\./\\.\\./([a-z].+/)?classes/",
						"order": 202
					},
					{
						"name": "grand2-server",
						"match": "^\\.\\.\\./\\.\\./([a-z].+/)?servers/",
						"order": 203
					},
					{
						"name": "grand2-service",
						"match": "^\\.\\.\\./\\.\\./([a-z].+/)?services/",
						"order": 204
					},
					{
						"name": "grand2-helper",
						"match": "^\\.\\.\\./\\.\\./([a-z].+/)?helpers/",
						"order": 205
					},
					{
						"name": "grand2-interface",
						"match": "^\\.\\.\\./\\.\\./([a-z].+/)?interfaces/",
						"order": 206
					},
					{
						"name": "grand2-type",
						"match": "^\\.\\.\\./\\.\\./([a-z].+/)?types/",
						"order": 207
					},
					{
						"name": "grand2-enum",
						"match": "^\\.\\.\\./\\.\\./([a-z].+/)?enums/",
						"order": 208
					},
					{
						"name": "grand1-app",
						"match": "^\\.\\./\\.\\./([a-z].+/)?apps/",
						"order": 300
					},
					{
						"name": "grand1-api",
						"match": "^\\.\\./\\.\\./([a-z].+/)?apis/",
						"order": 301
					},
					{
						"name": "grand1-class",
						"match": "^\\.\\./\\.\\./([a-z].+/)?classes/",
						"order": 302
					},
					{
						"name": "grand1-server",
						"match": "^\\.\\./\\.\\./([a-z].+/)?servers/",
						"order": 303
					},
					{
						"name": "grand1-service",
						"match": "^\\.\\./\\.\\./([a-z].+/)?services/",
						"order": 304
					},
					{
						"name": "grand1-helper",
						"match": "^\\.\\./\\.\\./([a-z].+/)?helpers/",
						"order": 305
					},
					{
						"name": "grand1-interface",
						"match": "^\\.\\./\\.\\./([a-z].+/)?interfaces/",
						"order": 306
					},
					{
						"name": "grand1-type",
						"match": "^\\.\\./\\.\\./([a-z].+/)?types/",
						"order": 307
					},
					{
						"name": "grand1-enum",
						"match": "^\\.\\./\\.\\./([a-z].+/)?enums/",
						"order": 308
					},
					{
						"name": "parent-app",
						"match": "^\\.\\./([a-z].+/)?apps/",
						"order": 400
					},
					{
						"name": "parent-api",
						"match": "^\\.\\./([a-z].+/)?apis/",
						"order": 401
					},
					{
						"name": "parent-class",
						"match": "^\\.\\./([a-z].+/)?classes/",
						"order": 402
					},
					{
						"name": "parent-server",
						"match": "^\\.\\./([a-z].+/)?servers/",
						"order": 403
					},
					{
						"name": "parent-service",
						"match": "^\\.\\./([a-z].+/)?services/",
						"order": 404
					},
					{
						"name": "parent-helper",
						"match": "^\\.\\./([a-z].+/)?helpers/",
						"order": 405
					},
					{
						"name": "parent-interface",
						"match": "^\\.\\./([a-z].+/)?interfaces/",
						"order": 406
					},
					{
						"name": "parent-type",
						"match": "^\\.\\./([a-z].+/)?types/",
						"order": 407
					},
					{
						"name": "parent-enum",
						"match": "^\\.\\./([a-z].+/)?enums/",
						"order": 408
					},
					{
						"name": "sibbling-app",
						"match": "^\\.\\./([a-z].+/)?apps/",
						"order": 500
					},
					{
						"name": "sibbling-api",
						"match": "^\\./([a-z].+/)?apis/",
						"order": 501
					},
					{
						"name": "sibbling-class",
						"match": "^\\./([a-z].+/)?classes/",
						"order": 502
					},
					{
						"name": "sibbling-server",
						"match": "^\\./([a-z].+/)?servers/",
						"order": 503
					},
					{
						"name": "sibbling-service",
						"match": "^\\./([a-z].+/)?services/",
						"order": 504
					},
					{
						"name": "sibbling-helper",
						"match": "^\\./([a-z].+/)?helpers/",
						"order": 505
					},
					{
						"name": "sibbling-interface",
						"match": "^\\./([a-z].+/)?interfaces/",
						"order": 506
					},
					{
						"name": "sibbling-type",
						"match": "^\\./([a-z].+/)?types/",
						"order": 507
					},
					{
						"name": "sibbling-enum",
						"match": "^\\./([a-z].+/)?enums/",
						"order": 508
					},
					{
						"name": "sibbling-self",
						"match": "^\\./[^/]+$",
						"order": 600
					},
					{
						"name": "npm",
						"match": ".*",
						"order": 30
					}
				]
			}
		],
		"quotemark": [
			true,
			"single"
		],
		"trailing-comma": [
			true,
			{
				"multiline": "never",
				"singleline": "never"
			}
		],
		"align": [
			true,
			"parameters",
			"statements"
		],
		"arrow-return-shorthand": true,
		"class-name": true,
		"comment-format": false,
		"curly": [
			true,
			"ignore-same-line"
		],
		"indent": [
			true,
			"tabs",
			2
		],
		"interface-over-type-literal": false,
		"no-invalid-template-strings": true,
		"no-invalid-this": true,
		"no-sparse-arrays": true,
		"no-string-literal": false,
		"no-unsafe-finally": true,
		"no-trailing-whitespace": [
			true,
			"ignore-blank-lines",
			"ignore-comments"
		],
		"one-line": [
			"check-catch",
			"check-finally",
			"check-else",
			"check-open-brace",
			"check-whitespace"
		],
		"prefer-const": true,
		"prefer-for-of": true,
		"type-literal-delimiter": true,
		"variable-name": {
			"options": [
				"check-format",
				"ban-keywords",
				"allow-leading-underscore"
			]
		},
		"whitespace": [
			true,
			"check-decl",
			"check-operator",
			"check-module",
			"check-separator",
			"check-branch",
			"check-rest-spread",
			"check-type",
			"check-typecast",
			"check-preblock"
		],
		"unnecessary-constructor": true
	}
}
